[
  {
    "type": "dropdown-single-select",
    "key": "occupation",
    "templateOptions": {
      "label": "Occupation",
      "placeholder": "Please select",
      "options": [
        {
          "label": "Clerical",
          "value": "Clerical"
        },
        {
          "label": "Consultant",
          "value": "Consultant"
        },
        {
          "label": "Government",
          "value": "Government"
        },
        {
          "label": "Homemaker",
          "value": "Homemaker"
        },
        {
          "label": "Laborer",
          "value": "Laborer"
        },
        {
          "label": "Management",
          "value": "Management"
        },
        {
          "label": "Medical services",
          "value": "Medical services"
        },
        {
          "label": "Military",
          "value": "Military"
        },
        {
          "label": "Professional",
          "value": "Professional"
        },
        {
          "label": "Retired",
          "value": "Retired"
        },
        {
          "label": "Sales",
          "value": "Sales"
        },
        {
          "label": "Service",
          "value": "Service"
        },
        {
          "label": "Student",
          "value": "Student"
        },
        {
          "label": "Teacher",
          "value": "Teacher"
        },
        {
          "label": "Technology",
          "value": "Technology"
        },
        {
          "label": "Other",
          "value": "Other"
        }
      ]
    },
    "validators": {
      "validation": [
        "required","singleOption"
      ]
    }
  },
  {
    "type": "dropdown-single-select",
    "key": "sourceOfIncome",
    "templateOptions": {
      "label": "Primary source of income",
      "placeholder": "Please select",
      "options": [
        {
          "label": "Payroll",
          "value": "Payroll"
        },
        {
          "label": "Beneficiary of Insurance",
          "value": "Beneficiary of Insurance"
        },
        {
          "label": "Gift / Inheritance",
          "value": "Gift / Inheritance"
        },
        {
          "label": "Loan Proceeds",
          "value": "Loan Proceeds"
        },
        {
          "label": "Proceeds from investments",
          "value": "Proceeds from investments"
        },
        {
          "label": "Rental income",
          "value": "Rental income"
        },
        {
          "label": "Sale of real estate",
          "value": "Sale of real estate"
        },
        {
          "label": "Savings",
          "value": "Savings"
        }
      ]
    },
    "validators": {
      "validation": [
        "required","singleOption"
      ]
    }
  },
  {
    "type": "dropdown-single-select",
    "key": "purpose",
    "templateOptions": {
      "label": "Purpose of account",
      "placeholder": "Please select",
      "options": [
        {
          "label": "Salary and salary compensation",
          "value": "Salary and salary compensation"
        },
        {
          "label": "Pension",
          "value": "Pension"
        },
        {
          "label": "Scholarships, student work payments",
          "value": "Scholarships, student work payments"
        },
        {
          "label": "Pocket money",
          "value": "Pocket money"
        },
        {
          "label": "Royalties",
          "value": "Royalties"
        },
        {
          "label": "Unemployment benefits",
          "value": "Unemployment benefits"
        },
        {
          "label": "Social transfers",
          "value": "Social transfers"
        },
        {
          "label": "Foster care, alimony",
          "value": "Foster care, alimony"
        },
        {
          "label": "Transfer of funds from other accounts in the United States",
          "value": "Transfer of funds from other accounts in the United States"
        },
        {
          "label": "Transfer of funds from other accounts outside the United States",
          "value": "Transfer of funds from other accounts outside the United States"
        }
      ]
    },
    "validators": {
      "validation": [
        "required","singleOption"
      ]
    }
  },
  {
    "type": "button-group",
    "key": "transferTiming",
    "templateOptions": {
      "label": "How often will you transfer money?",
      "options": [
        {
          "label": "1-5",
          "value": "1-5"
        },
        {
          "label": "6-10",
          "value": "6-10"
        },
        {
          "label": "11-20",
          "value": "11-20"
        },
        {
          "label": "20+",
          "value": "20+"
        }
      ]
    },
    "validators": {
      "validation": ["required", "singleOption"]
    }
  },
  {
    "type": "radio-group",
    "key": "totalAmount",
    "templateOptions": {
      "label": "What total amount will you transfer?",
      "options": [
        {
          "label": "$1 - $1000 per month",
          "value": "1-1000"
        },
        {
          "label": "$1000 - $2500",
          "value": "1000-2500"
        },
        {
          "label": "$2500 - $5000",
          "value": "2500-5000"
        },
        {
          "label": "More than $5000",
          "value": "5000+"
        }
      ]
    },
    "validators": {
      "validation": ["required", "singleOption"]
    }
  },
  {
    "type": "radio-group",
    "key": "internationalTransfer",
    "templateOptions": {
      "label": "Will you make international transfer?",
      "options": [
        {
          "label": "Yes",
          "value": "true"
        },
        {
          "label": "No",
          "value": "false"
        }
      ]
    },
    "validators": {
      "validation": ["required", "singleOption"]
    }
  },
  {
    "type": "button-group",
    "key": "internationalTransferTiming",
    "templateOptions": {
      "label": "How often will you transfer money?",
      "options": [
        {
          "label": "1-5",
          "value": "1-5"
        },
        {
          "label": "6-10",
          "value": "6-10"
        },
        {
          "label": "11-20",
          "value": "11-20"
        },
        {
          "label": "20+",
          "value": "20+"
        }
      ]
    },
    "hideExpression": "model.internationalTransfer !== 'true'",
    "validators": {
      "validation": ["required", "singleOption"]
    }
  },
  {
    "type": "radio-group",
    "key": "internationalTotalAmount",
    "templateOptions": {
      "label": "What total amount will you transfer?",
      "options": [
        {
          "label": "$1 - $1000 per month",
          "value": "1-1000"
        },
        {
          "label": "$1000 - $2500",
          "value": "1000-2500"
        },
        {
          "label": "$2500 - $5000",
          "value": "2500-5000"
        },
        {
          "label": "More than $5000",
          "value": "5000+"
        }
      ]
    },
    "hideExpression": "model.internationalTransfer !== 'true'",
    "validators": {
      "validation": ["required", "singleOption"]
    }
  }
]
