{
  "key": "in-branch-onboarding",
  "version": 1,
  "schemaId": "interaction-definition-schema@1",
  "caseDefinitionKey": "onboarding",
  "caseDefinitionVersion": 1,
  "steps": [
    {
      "name": "personal-info",
      "enabled": "true",
      "entryPoint": true,
      "handlers": [
        {
          "name": "submit-personal-info",
          "transitions": [
            {
              "condition": "success()",
              "step": "select-products"
            }
          ]
        }
      ]
    },
    {
      "name": "select-products",
      "handlers": [
        {
          "name": "get-product-list"
        },
        {
          "name": "select-products",
          "preExecutions": [
            {
              "name": "create-case"
            }
          ],
          "transitions": [
            {
              "condition": "success()",
              "step": "submit-in-branch"
            }
          ]
        }
      ]
    },
    {
      "name": "submit-in-branch",
      "enabled": "true",
      "handlers": [
        {
          "name": "submit-in-branch",
          "postExecutions": [
            {
              "name": "preliminary-case-promotion"
            },
            {
              "name": "start-onboarding-process"
            }
          ],
          "transitions": [
            {
              "condition": "success()",
              "step": "successfully-done"
            }
          ]
        }
      ]
    },
    {
      "name": "successfully-done",
      "enabled": "true",
      "exitPoint": true
    }
  ]
}
