[
  {
    "referenceId": "online-checking",
    "name": "Online Checking Account",
    "maxQuantity": 1,
    "description": "This is the best option if you are looking to keep your money secure while having it accessible",
    "benefits": [
      "$5 Minimum Deposit",
      "Fees waived for account with deposits totaling at least $500 per month",
      "Debit card with chip and touchless payment options included"
    ],
    "costsFrequency": "monthly",
    "cost": {
      "value": 4.95,
      "currency": "$"
    },
    "annualPercentageRate": 0.0,
    "imageName": "premium-savings.png",
    "detailedProductDescriptionUrl": "https://www.backbase.com/",
    "productTypeReferenceId": "checking-account",
    "productType": "Checking account"
  }
]