{
  "$schema": "../../$schema/SC_Unit_RichText.json",
  "content": "<h1>Your identity is verified!</h1><p class='bb-highlight bb-highlight--regular'>Now you can continue to activate your account.</p>"
}