{
  "extends": "container-bb-manageable-area",
  "children": [
    {
      "extends": "bb-us-journey-ang",
      "area": "0",
      "children": [
        {
          "classId": "FlowInteractionContainerComponent",
          "deploymentPath": "interactions",
          "interactionName": "onboarding",
          "apiVersion": "v2",
          "servicePath": "us-onboarding/client-api/interaction",
          "children": [
            {
              "classId": "DsLayoutContainerAngComponent",
              "route": "init",
              "backgroundImageL": "",
              "backgroundImageM":"",
              "backgroundImageS": "",
              "interactionName": "onboarding",
              "children": [
                {
                  "classId": "OnoLoadingWidgetAngComponent"
                }
              ]
            },
            {
              "classId": "DsLayoutContainerAngComponent",
              "route": "select-products",
              "backgroundImageL": {
                "kind": "content",
                "path": "img-large-savingaccount.jpg",
                "repo": "default"
              },
              "backgroundImageM": {
                "kind": "content",
                "path": "img-medium-savingaccount.jpg",
                "repo": "default"
              },
              "backgroundImageS": "",
              "interactionName": "onboarding",
              "children": [
                {
                  "classId": "ProductSelectionJourneyAngComponent",
                  "query": "{}",
                  "product1": {
                    "kind": "content",
                    "path": "onboarding-us/product-selection/premium-savings.png",
                    "repo": "shared"
                  }
                }
              ]
            },
            {
              "classId": "DsLayoutContainerAngComponent",
              "route": "terms-and-conditions",
              "backgroundImageL": {
                "kind": "content",
                "path": "img-large-step1.jpg",
                "repo": "default"
              },
              "backgroundImageM": {
                "kind": "content",
                "path": "img-medium-step1.jpg",
                "repo": "default"
              },
              "backgroundImageS": "",
              "interactionName": "onboarding",
              "children": [
                {
                  "classId": "OnoTacJourneyAngComponent",
                  "modalStepImage1": {
                    "kind": "content",
                    "path": "img-walkthrough-1.jpg",
                    "repo": "default"
                  },
                  "modalStepImage2": {
                    "kind": "content",
                    "path": "img-walkthrough-2.jpg",
                    "repo": "default"
                  },
                  "modalStepImage3": {
                    "kind": "content",
                    "path": "img-walkthrough-3.jpg",
                    "repo": "default"
                  },
                  "tncTermsConditionsLinkText": "Terms and Conditions",
                  "tncTermsConditionsLinkUrl": "https://www.backbase.com/",
                  "tncPrivacyStatementLinkText": "Privacy Statement",
                  "tncPrivacyStatementLinkUrl": "https://www.backbase.com/"
                }
              ]
            },
            {
              "classId": "DsLayoutContainerAngComponent",
              "route": "anchor-data",
              "backgroundImageL": {
                "kind": "content",
                "path": "img-large-step1.jpg",
                "repo": "default"
              },
              "backgroundImageM": {
                "kind": "content",
                "path": "img-medium-step1.jpg",
                "repo": "default"
              },
              "backgroundImageS": "",
              "interactionName": "onboarding",
              "children": [
                {
                  "classId": "OnoAnchorJourneyAngComponent"
                }
              ]
            },
            {
              "classId": "DsLayoutContainerAngComponent",
              "route": "address",
              "backgroundImageL": {
                "kind": "content",
                "path": "img-large-step2.jpg",
                "repo": "default"
              },
              "backgroundImageM": {
                "kind": "content",
                "path": "img-medium-step2.jpg",
                "repo": "default"
              },
              "backgroundImageS": "",
              "interactionName": "onboarding",
              "children": [
                {
                  "classId": "OnoAddressJourneyAngComponent"
                }
              ]
            },
            {
              "classId": "DsLayoutContainerAngComponent",
              "route": "co-applicant",
              "backgroundImageL": {
                "kind": "content",
                "path": "img-large-step2.jpg",
                "repo": "default"
              },
              "backgroundImageM": {
                "kind": "content",
                "path": "img-medium-step2.jpg",
                "repo": "default"
              },
              "backgroundImageS": "",
              "interactionName": "onboarding",
              "children": [
                {
                  "classId": "OnoAddCoApplicantJourneyAngComponent"
                }
              ]
            },
            {
              "classId": "DsLayoutContainerAngComponent",
              "route": "co-applicant-data",
              "backgroundImageL": {
                "kind": "content",
                "path": "img-large-step1.jpg",
                "repo": "default"
              },
              "backgroundImageM": {
                "kind": "content",
                "path": "img-medium-step1.jpg",
                "repo": "default"
              },
              "backgroundImageS": "",
              "interactionName": "onboarding",
              "children": [
                {
                  "classId": "OnoAnchorJourneyAngComponent",
                  "isCoApplicant": true
                }
              ]
            },
            {
              "classId": "DsLayoutContainerAngComponent",
              "route": "co-applicant-address",
              "backgroundImageL": {
                "kind": "content",
                "path": "img-large-step2.jpg",
                "repo": "default"
              },
              "backgroundImageM": {
                "kind": "content",
                "path": "img-medium-step2.jpg",
                "repo": "default"
              },
              "backgroundImageS": "",
              "interactionName": "onboarding",
              "children": [
                {
                  "classId": "OnoAddressJourneyAngComponent",
                  "isCoApplicant": true
                }
              ]
            },
            {
              "classId": "DsLayoutContainerAngComponent",
              "route": "citizenship",
              "backgroundImageL": {
                "kind": "content",
                "path": "img-large-step3.jpg",
                "repo": "default"
              },
              "backgroundImageM": {
                "kind": "content",
                "path": "img-medium-step3.jpg",
                "repo": "default"
              },
              "backgroundImageS": "",
              "interactionName": "onboarding",
              "children": [
                {
                  "classId": "OnoCitizenshipSelectorWidgetAngComponent"
                }
              ]
            },
            {
              "classId": "DsLayoutContainerAngComponent",
              "route": "ssn",
              "backgroundImageL": {
                "kind": "content",
                "path": "img-large-step3.jpg",
                "repo": "default"
              },
              "backgroundImageM": {
                "kind": "content",
                "path": "img-medium-step3.jpg",
                "repo": "default"
              },
              "backgroundImageS": "",
              "interactionName": "onboarding",
              "children": [
                {
                  "classId": "DsSsnJourneyAngComponent"
                }
              ]
            },
            {
              "classId": "DsLayoutContainerAngComponent",
              "route": "non-resident-data",
              "backgroundImageL": {
                "kind": "content",
                "path": "img-large-step3.jpg",
                "repo": "default"
              },
              "backgroundImageM": {
                "kind": "content",
                "path": "img-medium-step3.jpg",
                "repo": "default"
              },
              "backgroundImageS": "",
              "interactionName": "onboarding",
              "children": [
                {
                  "classId": "OnoNonResidentDataWidgetAngComponent"
                }
              ]
            },
            {
              "classId": "DsLayoutContainerAngComponent",
              "route": "identity-verification",
              "backgroundImageL": {
                "kind": "content",
                "path": "img-large-IDV.jpg",
                "repo": "default"
              },
              "backgroundImageM": {
                "kind": "content",
                "path": "img-medium-IDV.jpg",
                "repo": "default"
              },
              "backgroundImageS": "",
              "interactionName": "onboarding",
              "children": [
                {
                  "classId": "OnoIdvJumioJourneyAngComponent"
                }
              ]
            },
            {
              "classId": "DsLayoutContainerAngComponent",
              "route": "otp-verification",
              "backgroundImageL": {
                "kind": "content",
                "path": "img-large-step4.jpg",
                "repo": "default"
              },
              "backgroundImageM": {
                "kind": "content",
                "path": "img-medium-step4.jpg",
                "repo": "default"
              },
              "backgroundImageS": "",
              "interactionName": "onboarding",
              "children": [
                {
                  "classId": "OnoOtpVerificationJourneyAngComponent",
                  "stepName": "otp-verification",
                  "countryCodeEditable": "false",
                  "input.countryCodeEditable": "model countryCodeEditable"
                }
              ]
            },
            {
              "classId": "DsLayoutContainerAngComponent",
              "route": "credentials",
              "backgroundImageL": {
                "kind": "content",
                "path": "img-large-step5.jpg",
                "repo": "default"
              },
              "backgroundImageM": {
                "kind": "content",
                "path": "img-medium-step5.jpg",
                "repo": "default"
              },
              "backgroundImageS": "",
              "interactionName": "onboarding",
              "children": [
                {
                  "classId": "OnoCredentialsJourneyAngComponent"
                }
              ]
            },
            {
              "classId": "DsLayoutContainerAngComponent",
              "route": "kyc",
              "backgroundImageL": {
                "kind": "content",
                "path": "img-large-step6.jpg",
                "repo": "default"
              },
              "backgroundImageM": {
                "kind": "content",
                "path": "img-medium-step6.jpg",
                "repo": "default"
              },
              "backgroundImageS": "",
              "interactionName": "onboarding",
              "children": [
                {
                  "classId": "OnoKycJourneyAngComponent"
                }
              ]
            },
            {
              "classId": "DsLayoutContainerAngComponent",
              "title": "Response - OnoStepContainerAng Container",
              "route": "successfully-done",
              "backgroundImageL": {
                "kind": "content",
                "path": "img-large-onboarded.jpg",
                "repo": "default"
              },
              "backgroundImageM": {
                "kind": "content",
                "path": "img-medium-onboarded.jpg",
                "repo": "default"
              },
              "backgroundImageS": "",
              "notifyScreen": true,
              "children": [
                {
                  "classId": "OnoResponseJourneyAngComponent",
                  "primaryButtonAction": "go-to-my-account",
                  "primaryButtonLabel": "Go to my account",
                  "textDocument": {
                    "kind": "content",
                    "path": "documents/journey-successfully-done-message.json",
                    "repo": "default"
                  }
                }
              ]
            },
            {
              "classId": "DsLayoutContainerAngComponent",
              "title": "Response - OnoStepContainerAng Container",
              "route": "successfully-done-co-applicant",
              "backgroundImageL": {
                "kind": "content",
                "path": "img-large-onboarded.jpg",
                "repo": "default"
              },
              "backgroundImageM": {
                "kind": "content",
                "path": "img-medium-onboarded.jpg",
                "repo": "default"
              },
              "backgroundImageS": "",
              "notifyScreen": true,
              "children": [
                {
                  "classId": "OnoResponseJourneyAngComponent",
                  "primaryButtonAction": "go-to-my-account",
                  "primaryButtonLabel": "Ok, keep me posted!",
                  "textDocument": {
                    "kind": "content",
                    "path": "documents/journey-successfully-done-co-applicant-message.json",
                    "repo": "default"
                  }
                }
              ]
            },
            {
              "classId": "DsLayoutContainerAngComponent",
              "title": "Response - OnoStepContainerAng Container",
              "route": "in-review-done",
              "backgroundImageL": {
                "kind": "content",
                "path": "img-large-inreview.jpg",
                "repo": "default"
              },
              "backgroundImageM": {
                "kind": "content",
                "path": "img-medium-inreview.jpg",
                "repo": "default"
              },
              "backgroundImageS": "",
              "notifyScreen": true,
              "children": [
                {
                  "classId": "OnoResponseJourneyAngComponent",
                  "primaryButtonAction": "got-it",
                  "primaryButtonLabel": "Got it",
                  "textDocument": {
                    "kind": "content",
                    "path": "documents/journey-in-review-done-message.json",
                    "repo": "default"
                  }
                }
              ]
            },
            {
              "classId": "DsLayoutContainerAngComponent",
              "title": "Response Retry - OnoStepContainerAng Container",
              "route": "retry",
              "backgroundImageL": {
                "kind": "content",
                "path": "img-large-retry.png",
                "repo": "default"
              },
              "backgroundImageM": {
                "kind": "content",
                "path": "img-medium-retry.png",
                "repo": "default"
              },
              "backgroundImageS": {
                "kind": "content",
                "path": "img-small-retry.png",
                "repo": "default"
              },
              "notifyScreen": true,
              "children": [
                {
                  "classId": "OnoResponseRetryJourneyAngComponent",
                  "textDocument": {
                    "kind": "content",
                    "path": "documents/journey-retry-message.json",
                    "repo": "default"
                  }
                }
              ]
            },
            {
              "classId": "DsLayoutContainerAngComponent",
              "title": "Response Declined - OnoStepContainerAng Container",
              "route": "declined",
              "backgroundImageL": {
                "kind": "content",
                "path": "img-large-declined.jpg",
                "repo": "default"
              },
              "backgroundImageM": {
                "kind": "content",
                "path": "img-medium-declined.jpg",
                "repo": "default"
              },
              "notifyScreen": true,
              "children": [
                {
                  "classId": "OnoResponseDeclinedJourneyAngComponent",
                  "customerServiceUrl": "",
                  "localBranchUrl": "",
                  "productsListhUrl": ""
                }
              ]
            }
          ]
        }
      ]
    }
  ]
}
